<?xml version="1.0" encoding="UTF-8"?>
<svg width="100px" height="100px" viewBox="0 0 100 100" version="1.1" xmlns="http://www.w3.org/2000/svg" xmlns:xlink="http://www.w3.org/1999/xlink">
    <!-- Generator: Sketch 51.2 (57519) - http://www.bohemiancoding.com/sketch -->
    <title>pesas</title>
    <desc>Created with Sketch.</desc>
    <defs></defs>
    <g id="pesas" stroke="none" stroke-width="1" fill="none" fill-rule="evenodd">
        <g id="001-dumbbell" transform="translate(8.000000, 24.000000)" fill-rule="nonzero">
            <polygon id="Shape" fill="#86D4FC" points="19 10 66 10 66 19 19 19"></polygon>
            <path d="M67,21 L17,21 L17,9 L67,9 L67,21 Z M19.6313809,18.3335876 L64.3686191,18.3335876 L64.3686191,11.6671752 L19.6313809,11.6671752 L19.6313809,18.3335876 Z" id="Shape" fill="#10ABFB"></path>
            <polygon id="Shape" fill="#D7E9FF" points="2 10 6 10 6 19 2 19"></polygon>
            <path d="M7,21 L0,21 L0,9 L7,9 L7,21 Z M2.79983987,18.3335876 L4.20016033,18.3335876 L4.20016033,11.6671752 L2.79983987,11.6671752 L2.79983987,18.3335876 Z" id="Shape" fill="#10ABFB"></path>
            <path d="M17.3673609,30 L13.6318381,30 C12.730602,30 12,29.3041962 12,28.4451227 L12,3.55411439 C12,2.69580381 12.730602,2 13.6318381,2 L17.3673609,2 C18.269398,2 19,2.69580381 19,3.55411439 L19,28.4451227 C19,29.3041962 18.269398,30 17.3673609,30 Z" id="Shape" fill="#86D4FC"></path>
            <path d="M16.2153191,31 L12.7846809,31 C11.2492439,31 10,29.6912054 10,28.0808559 L10,2.91914412 C10,1.30956596 11.2492439,0 12.7846809,0 L16.2153191,0 C17.7514917,0 19,1.30956596 19,2.91914412 L19,28.0808559 C19,29.6912054 17.7514917,31 16.2153191,31 Z M12.7846809,2.69548456 C12.6669665,2.69548456 12.5713235,2.79574569 12.5713235,2.91914412 L12.5713235,28.0808559 C12.5713235,28.2050255 12.6669665,28.3045154 12.7846809,28.3045154 L16.2153191,28.3045154 C16.3337694,28.3045154 16.4286765,28.2050255 16.4286765,28.0808559 L16.4286765,2.91914412 C16.4286765,2.79574569 16.3337694,2.69548456 16.2153191,2.69548456 L12.7846809,2.69548456 Z" id="Shape" fill="#10ABFB"></path>
            <path d="M10.6285191,24 L6.37148091,24 C5.61364147,24 5,23.4268235 5,22.7197061 L5,8.28104231 C5,7.57392477 5.61364147,7 6.37067986,7 L10.627718,7 C11.3855573,7 12,7.57392477 12,8.28104231 L12,22.7189577 C12,23.4268235 11.3855573,24 10.6285191,24 Z" id="Shape" fill="#86D4FC"></path>
            <path d="M10.4551622,25 L6.54483779,25 C5.14109363,25 4,23.8166628 4,22.3609523 L4,7.6390479 C4,6.18333701 5.14109363,5 6.54483779,5 L10.4551622,5 C11.8589062,5 13,6.18333701 13,7.6390479 L13,22.3609523 C13,23.8166628 11.8589062,25 10.4551622,25 Z M10.4286765,7.6390479 L6.54483779,7.66651394 L6.57132334,22.3609523 L10.4286765,22.3334859 L10.4286765,7.6390479 Z M10.4551622,22.3334859 L10.4676693,22.3334859 L10.4551622,22.3334859 Z" id="Shape" fill="#10ABFB"></path>
            <polygon id="Shape" fill="#D7E9FF" points="84 19 80 19 80 10 84 10"></polygon>
            <path d="M85,21 L78,21 L78,9 L85,9 L85,21 Z M80.7998397,18.3335876 L82.2001601,18.3335876 L82.2001601,11.6671752 L80.7998397,11.6671752 L80.7998397,18.3335876 Z" id="Shape" fill="#10ABFB"></path>
            <path d="M67.6326391,30 L71.3681619,30 C72.269398,30 73,29.3041962 73,28.4451227 L73,3.55411439 C73,2.69580381 72.269398,2 71.3681619,2 L67.6326391,2 C66.7314032,2 66,2.69580381 66,3.55411439 L66,28.4451227 C66,29.3041962 66.7314032,30 67.6326391,30 Z" id="Shape" fill="#86D4FC"></path>
            <path d="M71.2153191,31 L67.7846809,31 C66.2492439,31 65,29.6912054 65,28.0808559 L65,2.91914412 C65,1.30956596 66.2492439,0 67.7846809,0 L71.2153191,0 C72.7507561,0 74,1.30956596 74,2.91914412 L74,28.0808559 C74,29.6912054 72.7507561,31 71.2153191,31 Z M67.7846809,2.69548456 C67.6662306,2.69548456 67.5713235,2.79574569 67.5713235,2.91914412 L67.5713235,28.0808559 C67.5713235,28.2050255 67.6662306,28.3045154 67.7846809,28.3045154 L71.2153191,28.3045154 C71.3337694,28.3045154 71.4286765,28.2050255 71.4286765,28.0808559 L71.4286765,2.91914412 C71.4286765,2.79574569 71.3337694,2.69548456 71.2153191,2.69548456 L67.7846809,2.69548456 Z" id="Shape" fill="#10ABFB"></path>
            <path d="M74.3714809,24 L78.6285191,24 C79.3855573,24 80,23.4268235 80,22.7197061 L80,8.28104231 C80,7.57392477 79.3855573,7 78.6285191,7 L74.3714809,7 C73.6144427,7 73,7.57392477 73,8.28104231 L73,22.7189577 C73,23.4268235 73.6144427,24 74.3714809,24 Z" id="Shape" fill="#86D4FC"></path>
            <g id="Group" transform="translate(25.000000, 5.000000)">
                <path d="M53.2610676,20.2823358 L49.2240669,20.2823358 C47.7748481,20.2823358 46.5967882,19.0911546 46.5967882,17.6257946 L46.5967882,2.80630306 C46.5967882,1.3409427 47.7748481,0.149761702 49.2240669,0.149761702 L53.2610676,0.149761702 C54.7102866,0.149761702 55.8883463,1.3409427 55.8883463,2.80630306 L55.8883463,17.6257946 C55.8883463,19.0911546 54.7102866,20.2823358 53.2610676,20.2823358 Z M49.2514106,17.6257946 L49.2650824,17.6257946 L49.2514106,17.6257946 Z M49.2514106,17.5981461 L53.2610676,17.5981461 L53.2337241,2.80630306 L49.2240669,2.83395117 L49.2514106,17.5981461 Z" id="Shape" fill="#10ABFB"></path>
                <path d="M34.6498481,52.4949153 C34.6498481,50.2707627 27.2214627,48.4682468 18.0575088,48.4682468 C8.89355464,48.4682468 1.46516922,50.2707627 1.46516922,52.4949153 C1.46516922,54.7190678 8.89355464,56.5215837 18.0575088,56.5215837 C27.2214627,56.5215837 34.6498481,54.7190678 34.6498481,52.4949153 Z" id="Shape" fill="#10ABFB"></path>
                <path d="M18.0575088,57.8640625 C16.2231988,57.8640625 0.13747825,57.7127647 0.13747825,52.4949153 C0.13747825,47.2770658 16.2231988,47.125768 18.0575088,47.125768 C19.8918185,47.125768 35.9775391,47.2770658 35.9775391,52.4949153 C35.9775391,57.7127647 19.8918185,57.8640625 18.0575088,57.8640625 Z M2.84906689,52.4949153 C3.69824214,53.5155985 9.16775183,55.1791049 18.0575088,55.1791049 C26.9472657,55.1791049 32.4167752,53.5155985 33.265191,52.4949153 C32.4167752,51.474232 26.9472657,49.8107256 18.0575088,49.8107256 C9.16775183,49.8107256 3.69824214,51.474232 2.84906689,52.4949153 Z M33.3434245,52.6101166 L33.3570963,52.6101166 L33.3434245,52.6101166 Z" id="Shape" fill="#10ABFB"></path>
                <path d="M17.3936632,16.2556675 C16.6599393,16.2556675 16.0659722,15.6550847 16.0659722,14.9131885 L16.0659722,5.51814084 C16.0659722,4.77701271 16.6599393,4.17566203 17.3936632,4.17566203 C18.1273871,4.17566203 18.7213542,4.77701271 18.7213542,5.51814084 L18.7213542,14.9131885 C18.7213542,15.6550847 18.1273871,16.2556675 17.3936632,16.2556675 Z" id="Shape" fill="#0E65E5"></path>
                <path d="M10.7567273,16.2556675 C10.0230035,16.2556675 9.42903656,15.6550847 9.42903656,14.9131885 L9.42903656,5.51814084 C9.42903656,4.77701271 10.0230035,4.17566203 10.7567273,4.17566203 C11.4896919,4.17566203 12.0844185,4.77701271 12.0844185,5.51814084 L12.0844185,14.9131885 C12.0844185,15.6550847 11.4896919,16.2556675 10.7567273,16.2556675 Z" id="Shape" fill="#0E65E5"></path>
                <path d="M24.0305991,16.2556675 C23.2976345,16.2556675 22.7036676,15.6550847 22.7036676,14.9131885 L22.7036676,5.51814084 C22.7036676,4.77701271 23.2976345,4.17566203 24.0305991,4.17566203 C24.7643229,4.17566203 25.3582898,4.77701271 25.3582898,5.51814084 L25.3582898,14.9131885 C25.3582898,15.6550847 24.7643229,16.2556675 24.0305991,16.2556675 Z" id="Shape" fill="#0E65E5"></path>
            </g>
            <path d="M48.7415449,8.05009642 L37.8427647,6.69980693 L37.8427647,7.37495167 C37.8427647,5.51096488 36.310405,4 34.4209908,4 C32.5323595,4 31,5.51096488 31,7.37495167 L31,25.7830771 C31,28.2611831 32.7563018,30.3267863 35.1053456,30.8582505 L35.1053456,58 L52.8946544,58 L52.8946544,30.8582505 C55.2436982,30.3260139 57,28.2611831 57,25.7830771 L57,16.1974107 C57,11.6977326 53.3026051,8.05009642 48.7415449,8.05009642 Z" id="Shape" fill="#86D4FC"></path>
            <path d="M52.999891,59 L33.000109,59 L33.000109,31.8304519 C30.599891,30.8439804 29,28.5155107 29,25.8460102 L29,7.66685736 C29,5.09424935 31.093515,3 33.666158,3 C35.5666486,3 37.2046866,4.14058377 37.9317712,5.77325927 L47.7058312,7.00005455 C52.8389102,7.04659337 57,11.236618 57,16.3803081 L57,25.8467731 C57,28.5162736 55.400109,30.8439804 52.999891,31.8312148 L52.999891,59 Z M35.6665939,56.3327884 L50.3334059,56.3327884 L50.3334059,29.7964742 L51.3687194,29.5599651 C53.1143325,29.1601885 54.3335149,27.6327978 54.3335149,25.8467731 L54.3335149,16.3803081 C54.3335149,12.6785601 51.3214168,9.66650309 47.6196185,9.66650309 L47.4532971,9.65582213 L36.8331336,8.32297921 L36.9162943,7.66685736 L35.6665939,7.66685736 C35.6665939,6.56442011 34.7693732,5.66721162 33.666158,5.66721162 C32.5637058,5.66721162 31.6664851,6.56442011 31.6664851,7.66685736 L31.6664851,25.8467731 C31.6664851,27.6335609 32.8849046,29.1609514 34.6312806,29.5599651 L35.6665939,29.7964742 L35.6665939,56.3327884 Z" id="Shape" fill="#10ABFB"></path>
            <path d="M37.5004294,14 C36.6712447,14 36,13.4246711 36,12.7139704 L36,6.28529393 C36,5.57532894 36.6712447,5 37.5004294,5 C38.3287555,5 39,5.57532894 39,6.28529393 L39,12.7139704 C39,13.4246711 38.3287555,14 37.5004294,14 Z" id="Shape" fill="#10ABFB"></path>
            <path d="M42.5,14 C41.6710527,14 41,13.3735407 41,12.6004806 L41,8.40032025 C41,7.62645905 41.6710527,7 42.5,7 C43.3289473,7 44,7.62645905 44,8.40032025 L44,12.6004806 C44,13.3735407 43.3289473,14 42.5,14 Z" id="Shape" fill="#10ABFB"></path>
            <path d="M47.5004292,14 C46.6712445,14 46,13.3735407 46,12.6004806 L46,8.40032025 C46,7.62645905 46.6712445,7 47.5004292,7 C48.3287553,7 49,7.62645905 49,8.40032025 L49,12.6004806 C49,13.3735407 48.3287553,14 47.5004292,14 Z" id="Shape" fill="#10ABFB"></path>
        </g>
    </g>
</svg>